<svg width="322" height="216" viewBox="0 0 322 216" fill="none" xmlns="http://www.w3.org/2000/svg">
<path d="M0 166.342V103.689H29.3087C32.6111 103.689 35.6077 104.224 38.2986 105.294C41.02 106.364 43.2369 107.817 44.9492 109.651C46.6921 111.486 48.0223 113.626 48.9396 116.073C49.8875 118.488 50.3615 121.087 50.3615 123.87C50.3615 126.622 49.8875 129.206 48.9396 131.621C48.0223 134.037 46.6921 136.178 44.9492 138.043C43.2063 139.877 40.9894 141.33 38.2986 142.4C35.6077 143.47 32.6111 144.005 29.3087 144.005H13.3472V166.342H0ZM13.3472 132.264H27.4282C30.119 132.264 32.3359 131.499 34.0788 129.97C35.8523 128.441 36.7391 126.408 36.7391 123.87C36.7391 121.301 35.8523 119.253 34.0788 117.724C32.3359 116.195 30.119 115.431 27.4282 115.431H13.3472V132.264Z" fill="#284089"/>
<path d="M59.3513 114.009C57.9753 112.602 57.2873 110.92 57.2873 108.963C57.2873 107.006 57.9753 105.34 59.3513 103.964C60.7579 102.588 62.4244 101.9 64.3508 101.9C66.3383 101.9 68.0201 102.588 69.3961 103.964C70.8027 105.34 71.5059 107.006 71.5059 108.963C71.5059 110.92 70.8027 112.602 69.3961 114.009C68.0201 115.385 66.3383 116.073 64.3508 116.073C62.4244 116.073 60.7579 115.385 59.3513 114.009ZM58.434 166.342V120.98H70.3593V166.342H58.434Z" fill="#284089"/>
<path d="M82.1929 166.342V120.98H94.1182V126.805C95.7693 124.879 97.9709 123.243 100.723 121.898C103.506 120.522 106.594 119.834 109.988 119.834C114.88 119.834 118.58 121.118 121.088 123.687C123.595 126.224 124.849 129.771 124.849 134.328V166.342H112.832V138.914C112.832 135.918 112.098 133.762 110.63 132.447C109.193 131.132 107.129 130.475 104.438 130.475C102.267 130.475 100.295 130.979 98.5213 131.988C96.7478 132.967 95.2801 134.205 94.1182 135.704V166.342H82.1929Z" fill="#284089"/>
<path d="M133.701 142.95C133.701 135.704 135.551 130.047 139.251 125.98C142.981 121.882 147.797 119.834 153.699 119.834C159.447 119.834 164.141 122.158 167.78 126.805V120.98H179.705V163.315C179.705 166.618 179.201 169.553 178.192 172.122C177.213 174.69 175.929 176.754 174.339 178.314C172.749 179.873 170.853 181.142 168.651 182.12C166.45 183.13 164.263 183.818 162.092 184.184C159.921 184.551 157.628 184.735 155.212 184.735C151.207 184.735 147.644 184.215 144.525 183.175C141.407 182.136 138.456 180.408 135.673 177.993L140.994 169.461C144.418 173.131 149.158 174.965 155.212 174.965C156.772 174.965 158.24 174.782 159.616 174.415C160.992 174.048 162.322 173.452 163.606 172.626C164.89 171.801 165.899 170.593 166.633 169.003C167.398 167.413 167.78 165.517 167.78 163.315V158.912C164.019 163.621 159.325 165.975 153.699 165.975C147.828 165.975 143.027 163.973 139.297 159.967C135.566 155.931 133.701 150.259 133.701 142.95ZM149.158 133.823C147.048 136.055 145.993 139.098 145.993 142.95C145.993 146.803 147.048 149.846 149.158 152.078C151.268 154.31 154.066 155.426 157.552 155.426C159.447 155.426 161.359 154.937 163.285 153.958C165.242 152.98 166.74 151.757 167.78 150.289V135.52C166.74 134.083 165.257 132.89 163.331 131.942C161.404 130.964 159.478 130.475 157.552 130.475C154.066 130.475 151.268 131.591 149.158 133.823Z" fill="#284089"/>
<path d="M135.88 210.055C135.88 209.287 135.994 208.587 136.224 207.957C136.464 207.315 136.774 206.787 137.152 206.374C137.542 205.962 137.995 205.618 138.511 205.342C139.039 205.056 139.572 204.855 140.111 204.74C140.65 204.614 141.2 204.551 141.762 204.551C142.909 204.551 143.952 204.735 144.892 205.102C145.833 205.457 146.584 205.967 147.146 206.632V204.482C147.146 203.622 146.802 202.934 146.114 202.418C145.437 201.891 144.537 201.627 143.413 201.627C141.59 201.627 139.956 202.298 138.511 203.64L136.757 200.509C138.741 198.72 141.217 197.826 144.187 197.826C145.219 197.826 146.159 197.935 147.008 198.153C147.868 198.371 148.653 198.72 149.364 199.202C150.087 199.684 150.649 200.354 151.05 201.214C151.451 202.074 151.652 203.095 151.652 204.276V215.267H147.146V213.478C146.561 214.177 145.793 214.722 144.841 215.112C143.901 215.502 142.874 215.697 141.762 215.697C141.063 215.697 140.369 215.576 139.681 215.336C139.004 215.095 138.379 214.751 137.806 214.304C137.233 213.856 136.768 213.266 136.413 212.532C136.057 211.787 135.88 210.961 135.88 210.055ZM141.263 208.249C140.655 208.719 140.352 209.344 140.352 210.124C140.352 210.904 140.655 211.523 141.263 211.982C141.871 212.429 142.633 212.652 143.551 212.652C144.296 212.652 144.99 212.526 145.632 212.274C146.286 212.022 146.79 211.655 147.146 211.173V209.075C146.779 208.593 146.268 208.22 145.615 207.957C144.973 207.682 144.285 207.544 143.551 207.544C142.645 207.544 141.882 207.779 141.263 208.249Z" fill="#284089"/>
<path d="M156.055 210.33V198.256H160.527V208.576C160.527 209.7 160.797 210.502 161.336 210.984C161.874 211.466 162.648 211.706 163.658 211.706C164.46 211.706 165.2 211.523 165.876 211.156C166.553 210.789 167.109 210.33 167.545 209.78V198.256H172.017V215.267H167.545V213.117C166.868 213.851 166.02 214.464 164.999 214.957C163.99 215.45 162.843 215.697 161.559 215.697C159.736 215.697 158.36 215.227 157.431 214.286C156.514 213.346 156.055 212.027 156.055 210.33Z" fill="#284089"/>
<path d="M175.371 206.736C175.371 204.133 176.219 202 177.916 200.337C179.613 198.663 181.769 197.826 184.383 197.826C187.365 197.826 189.607 198.847 191.109 200.888L188.185 203.64C187.371 202.424 186.172 201.816 184.59 201.816C183.225 201.816 182.113 202.269 181.253 203.175C180.405 204.081 179.98 205.268 179.98 206.736C179.98 208.215 180.405 209.413 181.253 210.33C182.113 211.248 183.225 211.706 184.59 211.706C186.126 211.706 187.325 211.087 188.185 209.849L191.109 212.584C190.455 213.478 189.572 214.223 188.46 214.82C187.348 215.404 185.989 215.697 184.383 215.697C181.769 215.697 179.613 214.86 177.916 213.186C176.219 211.5 175.371 209.35 175.371 206.736Z" fill="#284089"/>
<path d="M192.123 202.16V198.256H194.944V193.595H199.416V198.256H202.873V202.16H199.416V209.814C199.416 210.365 199.554 210.818 199.829 211.173C200.104 211.529 200.483 211.706 200.964 211.706C201.285 211.706 201.595 211.655 201.893 211.552C202.191 211.448 202.403 211.322 202.529 211.173L203.475 214.596C202.661 215.33 201.417 215.697 199.743 215.697C198.184 215.697 196.991 215.301 196.165 214.51C195.351 213.707 194.944 212.538 194.944 211.001V202.16H192.123Z" fill="#284089"/>
<path d="M206.279 195.642C205.763 195.114 205.505 194.483 205.505 193.75C205.505 193.016 205.763 192.391 206.279 191.875C206.807 191.359 207.431 191.101 208.154 191.101C208.899 191.101 209.53 191.359 210.046 191.875C210.573 192.391 210.837 193.016 210.837 193.75C210.837 194.483 210.573 195.114 210.046 195.642C209.53 196.158 208.899 196.416 208.154 196.416C207.431 196.416 206.807 196.158 206.279 195.642ZM205.935 215.267V198.256H210.407V215.267H205.935Z" fill="#284089"/>
<path d="M214.81 211.208C214.111 209.854 213.761 208.364 213.761 206.736C213.761 205.107 214.111 203.628 214.81 202.298C215.521 200.956 216.565 199.879 217.941 199.064C219.328 198.239 220.928 197.826 222.739 197.826C224.563 197.826 226.168 198.239 227.555 199.064C228.943 199.879 229.986 200.956 230.686 202.298C231.397 203.628 231.752 205.107 231.752 206.736C231.752 208.364 231.397 209.854 230.686 211.208C229.986 212.549 228.943 213.633 227.555 214.458C226.168 215.284 224.563 215.697 222.739 215.697C220.928 215.697 219.328 215.284 217.941 214.458C216.565 213.633 215.521 212.549 214.81 211.208ZM218.405 206.736C218.405 208.134 218.789 209.316 219.557 210.279C220.337 211.23 221.398 211.706 222.739 211.706C224.092 211.706 225.159 211.23 225.939 210.279C226.718 209.327 227.108 208.146 227.108 206.736C227.108 205.348 226.718 204.184 225.939 203.244C225.159 202.292 224.092 201.816 222.739 201.816C221.398 201.816 220.337 202.292 219.557 203.244C218.789 204.184 218.405 205.348 218.405 206.736Z" fill="#284089"/>
<path d="M235.106 215.267V198.256H239.578V200.44C240.197 199.718 241.023 199.105 242.055 198.6C243.098 198.084 244.257 197.826 245.529 197.826C247.364 197.826 248.751 198.308 249.692 199.271C250.632 200.223 251.102 201.553 251.102 203.261V215.267H246.596V204.981C246.596 203.857 246.321 203.049 245.77 202.556C245.231 202.063 244.457 201.816 243.448 201.816C242.634 201.816 241.894 202.006 241.229 202.384C240.564 202.751 240.014 203.215 239.578 203.777V215.267H235.106Z" fill="#284089"/>
<path d="M207.517 0L185.012 62.6231L229.044 112.526V152.644L322 53.8167L207.517 0Z" fill="#284089"/>
<path d="M188.977 159.051C188.977 156.976 189.681 155.191 191.091 153.696C192.53 152.201 194.233 151.453 196.201 151.453C198.198 151.453 199.916 152.216 201.355 153.742C202.794 155.237 203.513 157.006 203.513 159.051C203.513 161.064 202.779 162.819 201.311 164.314C199.872 165.778 198.168 166.511 196.201 166.511C194.233 166.511 192.53 165.778 191.091 164.314C189.681 162.819 188.977 161.064 188.977 159.051ZM189.241 103.078H203.073L201.267 145.183H191.135L189.241 103.078Z" fill="#284089"/>
</svg>
